{
    "host": "http://localhost:8085",
    "port": "8085",
    "db_host": "localhost",
    "db_user": "root",
    "db_password": "root",
    "db_port": "3306",
    "db_name": "app",
    "auth_cookie_name": "x_auth_app",
    "auth_cookie_expires_mins": "100",
    "g_oauth_expires_h": "168",
    "g_oauth_cookie_name": "oauthstate",
    "g_oauth_api_url": "https://www.googleapis.com/oauth2/v2/userinfo?access_token=",
    "mail_sender": "info@app.biz",
    "mail_host": "smtp.gmail.com",
    "mail_port": "587"
}
